<?xml version="1.0"?>
<robot name="wheel" xmlns:xacro="https://github.com/zoidberg2010eaf/minesweeper">
    <xacro:arg name="robot_namespace" default="/" />
    <xacro:include filename="$(find minesweeper_description)/urdf/wheel.urdf.xacro"/>
    <link name="base_link">
      <inertial>
        <origin xyz="0.0 0.0 0.05045" rpy="0 0 0" />
        <mass value="23.176" />
        <inertia ixx="0.6022" ixy="-0.02364" ixz="-0.1197" iyy="1.7386" iyz="-0.001544" izz="2.0296" />
      </inertial>
      <visual>
        <geometry>
          <mesh filename="package://minesweeper_description/meshes/base_link.STL" />
        </geometry>
        <material name="yellow">
          <color rgba="1.0 0.8 0.0 1" />
        </material>
      </visual>
      <collision>
        <geometry>
          <box size="0.75 0.50 0.15"/>
        </geometry>
        <origin xyz="0.0 0.0 0.075"/>
      </collision>
    </link>
    <link name="base_footprint"/>
    <joint name="base_footprint_joint" type="fixed">
      <origin xyz="0 0 0" rpy="0 0 0" />
      <parent link="base_link" />
      <child link="base_footprint" />
    </joint>
    <xacro:wheel prefix="front_left" angle="0.0">
      <origin xyz="0.181 0.320 0.025"/>
    </xacro:wheel>
    <xacro:wheel prefix="front_right" angle="180.0">
      <origin xyz="0.181 -0.320 0.025"/>
    </xacro:wheel>
    <xacro:wheel prefix="rear_left" angle="0.0">
      <origin xyz="-0.181 0.320 0.025"/>
    </xacro:wheel>
    <xacro:wheel prefix="rear_right" angle="180.0">
      <origin xyz="-0.181 -0.320 0.025"/>
    </xacro:wheel>
    <gazebo>
      <plugin name="gazebo_ros_control" filename="libgazebo_ros_control.so">
        <robotNamespace>$(arg robot_namespace)</robotNamespace>
      </plugin>
    </gazebo>
</robot>
